^c:\Users\ACER\source\repos\AsciiEdu\AsciiEdu\AsciiEdu.vcxproj
c:\Users\ACER\source\repos\AsciiEdu\Debug\AsciiEdu.lib
c:\Users\ACER\source\repos\AsciiEdu\Debug\AsciiEdu.exp
^c:\Users\ACER\source\repos\AsciiEdu\AsciiEdu\AsciiEdu.vcxproj
c:\Users\ACER\source\repos\AsciiEdu\Debug\AsciiEdu.lib
c:\Users\ACER\source\repos\AsciiEdu\Debug\AsciiEdu.exp
^c:\Users\ACER\source\repos\AsciiEdu\AsciiEdu\AsciiEdu.vcxproj
c:\Users\ACER\source\repos\AsciiEdu\Debug\AsciiEdu.lib
c:\Users\ACER\source\repos\AsciiEdu\Debug\AsciiEdu.exp
^c:\Users\ACER\source\repos\AsciiEdu\AsciiEdu\AsciiEdu.vcxproj
c:\Users\ACER\source\repos\AsciiEdu\Debug\AsciiEdu.lib
c:\Users\ACER\source\repos\AsciiEdu\Debug\AsciiEdu.exp
^c:\Users\ACER\source\repos\AsciiEdu\AsciiEdu\AsciiEdu.vcxproj
c:\Users\ACER\source\repos\AsciiEdu\Debug\AsciiEdu.lib
c:\Users\ACER\source\repos\AsciiEdu\Debug\AsciiEdu.exp
^c:\Users\ACER\source\repos\AsciiEdu\AsciiEdu\AsciiEdu.vcxproj
c:\Users\ACER\source\repos\AsciiEdu\Debug\AsciiEdu.lib
c:\Users\ACER\source\repos\AsciiEdu\Debug\AsciiEdu.exp
^c:\Users\ACER\source\repos\AsciiEdu\AsciiEdu\AsciiEdu.vcxproj
c:\Users\ACER\source\repos\AsciiEdu\Debug\AsciiEdu.lib
c:\Users\ACER\source\repos\AsciiEdu\Debug\AsciiEdu.exp
^c:\Users\ACER\source\repos\AsciiEdu\AsciiEdu\AsciiEdu.vcxproj
c:\Users\ACER\source\repos\AsciiEdu\Debug\AsciiEdu.lib
c:\Users\ACER\source\repos\AsciiEdu\Debug\AsciiEdu.exp
^c:\Users\ACER\source\repos\AsciiEdu\AsciiEdu\AsciiEdu.vcxproj
c:\Users\ACER\source\repos\AsciiEdu\Debug\AsciiEdu.lib
c:\Users\ACER\source\repos\AsciiEdu\Debug\AsciiEdu.exp
^c:\Users\ACER\source\repos\AsciiEdu\AsciiEdu\AsciiEdu.vcxproj
c:\Users\ACER\source\repos\AsciiEdu\Debug\AsciiEdu.lib
c:\Users\ACER\source\repos\AsciiEdu\Debug\AsciiEdu.exp
^c:\Users\ACER\source\repos\AsciiEdu\AsciiEdu\AsciiEdu.vcxproj
c:\Users\ACER\source\repos\AsciiEdu\Debug\AsciiEdu.lib
c:\Users\ACER\source\repos\AsciiEdu\Debug\AsciiEdu.exp
^c:\Users\ACER\source\repos\AsciiEdu\AsciiEdu\AsciiEdu.vcxproj
c:\Users\ACER\source\repos\AsciiEdu\Debug\AsciiEdu.lib
c:\Users\ACER\source\repos\AsciiEdu\Debug\AsciiEdu.exp
^c:\Users\ACER\source\repos\AsciiEdu\AsciiEdu\AsciiEdu.vcxproj
c:\Users\ACER\source\repos\AsciiEdu\Debug\AsciiEdu.lib
c:\Users\ACER\source\repos\AsciiEdu\Debug\AsciiEdu.exp
^c:\Users\ACER\source\repos\AsciiEdu\AsciiEdu\AsciiEdu.vcxproj
c:\Users\ACER\source\repos\AsciiEdu\Debug\AsciiEdu.lib
c:\Users\ACER\source\repos\AsciiEdu\Debug\AsciiEdu.exp
^c:\Users\ACER\source\repos\AsciiEdu\AsciiEdu\AsciiEdu.vcxproj
c:\Users\ACER\source\repos\AsciiEdu\Debug\AsciiEdu.lib
c:\Users\ACER\source\repos\AsciiEdu\Debug\AsciiEdu.exp
^c:\Users\ACER\source\repos\AsciiEdu\AsciiEdu\AsciiEdu.vcxproj
c:\Users\ACER\source\repos\AsciiEdu\Debug\AsciiEdu.lib
c:\Users\ACER\source\repos\AsciiEdu\Debug\AsciiEdu.exp
^c:\Users\ACER\source\repos\AsciiEdu\AsciiEdu\AsciiEdu.vcxproj
c:\Users\ACER\source\repos\AsciiEdu\Debug\AsciiEdu.lib
c:\Users\ACER\source\repos\AsciiEdu\Debug\AsciiEdu.exp
^c:\Users\ACER\source\repos\AsciiEdu\AsciiEdu\AsciiEdu.vcxproj
c:\Users\ACER\source\repos\AsciiEdu\Debug\AsciiEdu.lib
c:\Users\ACER\source\repos\AsciiEdu\Debug\AsciiEdu.exp
^c:\Users\ACER\source\repos\AsciiEdu\AsciiEdu\AsciiEdu.vcxproj
c:\Users\ACER\source\repos\AsciiEdu\Debug\AsciiEdu.lib
c:\Users\ACER\source\repos\AsciiEdu\Debug\AsciiEdu.exp
^c:\Users\ACER\source\repos\AsciiEdu\AsciiEdu\AsciiEdu.vcxproj
c:\Users\ACER\source\repos\AsciiEdu\Debug\AsciiEdu.lib
c:\Users\ACER\source\repos\AsciiEdu\Debug\AsciiEdu.exp
^c:\Users\ACER\source\repos\AsciiEdu\AsciiEdu\AsciiEdu.vcxproj
c:\Users\ACER\source\repos\AsciiEdu\Debug\AsciiEdu.lib
c:\Users\ACER\source\repos\AsciiEdu\Debug\AsciiEdu.exp
^c:\Users\ACER\source\repos\AsciiEdu\AsciiEdu\AsciiEdu.vcxproj
c:\Users\ACER\source\repos\AsciiEdu\Debug\AsciiEdu.lib
c:\Users\ACER\source\repos\AsciiEdu\Debug\AsciiEdu.exp
^c:\Users\ACER\source\repos\AsciiEdu\AsciiEdu\AsciiEdu.vcxproj
c:\Users\ACER\source\repos\AsciiEdu\Debug\AsciiEdu.lib
c:\Users\ACER\source\repos\AsciiEdu\Debug\AsciiEdu.exp
^c:\Users\ACER\source\repos\AsciiEdu\AsciiEdu\AsciiEdu.vcxproj
c:\Users\ACER\source\repos\AsciiEdu\Debug\AsciiEdu.lib
c:\Users\ACER\source\repos\AsciiEdu\Debug\AsciiEdu.exp
^c:\Users\ACER\source\repos\AsciiEdu\AsciiEdu\AsciiEdu.vcxproj
c:\Users\ACER\source\repos\AsciiEdu\Debug\AsciiEdu.lib
c:\Users\ACER\source\repos\AsciiEdu\Debug\AsciiEdu.exp
^c:\Users\ACER\source\repos\AsciiEdu\AsciiEdu\AsciiEdu.vcxproj
c:\Users\ACER\source\repos\AsciiEdu\Debug\AsciiEdu.lib
c:\Users\ACER\source\repos\AsciiEdu\Debug\AsciiEdu.exp
^c:\Users\ACER\source\repos\AsciiEdu\AsciiEdu\AsciiEdu.vcxproj
c:\Users\ACER\source\repos\AsciiEdu\Debug\AsciiEdu.lib
c:\Users\ACER\source\repos\AsciiEdu\Debug\AsciiEdu.exp
^c:\Users\ACER\source\repos\AsciiEdu\AsciiEdu\AsciiEdu.vcxproj
c:\Users\ACER\source\repos\AsciiEdu\Debug\AsciiEdu.lib
c:\Users\ACER\source\repos\AsciiEdu\Debug\AsciiEdu.exp
^c:\Users\ACER\source\repos\AsciiEdu\AsciiEdu\AsciiEdu.vcxproj
c:\Users\ACER\source\repos\AsciiEdu\Debug\AsciiEdu.lib
c:\Users\ACER\source\repos\AsciiEdu\Debug\AsciiEdu.exp
^c:\Users\ACER\source\repos\AsciiEdu\AsciiEdu\AsciiEdu.vcxproj
c:\Users\ACER\source\repos\AsciiEdu\Debug\AsciiEdu.lib
c:\Users\ACER\source\repos\AsciiEdu\Debug\AsciiEdu.exp
^c:\Users\ACER\source\repos\AsciiEdu\AsciiEdu\AsciiEdu.vcxproj
c:\Users\ACER\source\repos\AsciiEdu\Debug\AsciiEdu.lib
c:\Users\ACER\source\repos\AsciiEdu\Debug\AsciiEdu.exp
^c:\Users\ACER\source\repos\AsciiEdu\AsciiEdu\AsciiEdu.vcxproj
c:\Users\ACER\source\repos\AsciiEdu\Debug\AsciiEdu.lib
c:\Users\ACER\source\repos\AsciiEdu\Debug\AsciiEdu.exp
^c:\Users\ACER\source\repos\AsciiEdu\AsciiEdu\AsciiEdu.vcxproj
c:\Users\ACER\source\repos\AsciiEdu\Debug\AsciiEdu.lib
c:\Users\ACER\source\repos\AsciiEdu\Debug\AsciiEdu.exp
^c:\Users\ACER\source\repos\AsciiEdu\AsciiEdu\AsciiEdu.vcxproj
c:\Users\ACER\source\repos\AsciiEdu\Debug\AsciiEdu.lib
c:\Users\ACER\source\repos\AsciiEdu\Debug\AsciiEdu.exp
^c:\Users\ACER\source\repos\AsciiEdu\AsciiEdu\AsciiEdu.vcxproj
c:\Users\ACER\source\repos\AsciiEdu\Debug\AsciiEdu.lib
c:\Users\ACER\source\repos\AsciiEdu\Debug\AsciiEdu.exp
^c:\Users\ACER\source\repos\AsciiEdu\AsciiEdu\AsciiEdu.vcxproj
c:\Users\ACER\source\repos\AsciiEdu\Debug\AsciiEdu.lib
c:\Users\ACER\source\repos\AsciiEdu\Debug\AsciiEdu.exp
^c:\Users\ACER\source\repos\AsciiEdu\AsciiEdu\AsciiEdu.vcxproj
c:\Users\ACER\source\repos\AsciiEdu\Debug\AsciiEdu.lib
c:\Users\ACER\source\repos\AsciiEdu\Debug\AsciiEdu.exp
^c:\Users\ACER\source\repos\AsciiEdu\AsciiEdu\AsciiEdu.vcxproj
c:\Users\ACER\source\repos\AsciiEdu\Debug\AsciiEdu.lib
c:\Users\ACER\source\repos\AsciiEdu\Debug\AsciiEdu.exp
^c:\Users\ACER\source\repos\AsciiEdu\AsciiEdu\AsciiEdu.vcxproj
c:\Users\ACER\source\repos\AsciiEdu\Debug\AsciiEdu.lib
c:\Users\ACER\source\repos\AsciiEdu\Debug\AsciiEdu.exp
^c:\Users\ACER\source\repos\AsciiEdu\AsciiEdu\AsciiEdu.vcxproj
c:\Users\ACER\source\repos\AsciiEdu\Debug\AsciiEdu.lib
c:\Users\ACER\source\repos\AsciiEdu\Debug\AsciiEdu.exp
^c:\Users\ACER\source\repos\AsciiEdu\AsciiEdu\AsciiEdu.vcxproj
c:\Users\ACER\source\repos\AsciiEdu\Debug\AsciiEdu.lib
c:\Users\ACER\source\repos\AsciiEdu\Debug\AsciiEdu.exp
^c:\Users\ACER\source\repos\AsciiEdu\AsciiEdu\AsciiEdu.vcxproj
c:\Users\ACER\source\repos\AsciiEdu\Debug\AsciiEdu.lib
c:\Users\ACER\source\repos\AsciiEdu\Debug\AsciiEdu.exp
^c:\Users\ACER\source\repos\AsciiEdu\AsciiEdu\AsciiEdu.vcxproj
c:\Users\ACER\source\repos\AsciiEdu\Debug\AsciiEdu.lib
c:\Users\ACER\source\repos\AsciiEdu\Debug\AsciiEdu.exp
^c:\Users\ACER\source\repos\AsciiEdu\AsciiEdu\AsciiEdu.vcxproj
c:\Users\ACER\source\repos\AsciiEdu\Debug\AsciiEdu.lib
c:\Users\ACER\source\repos\AsciiEdu\Debug\AsciiEdu.exp
^c:\Users\ACER\source\repos\AsciiEdu\AsciiEdu\AsciiEdu.vcxproj
c:\Users\ACER\source\repos\AsciiEdu\Debug\AsciiEdu.lib
c:\Users\ACER\source\repos\AsciiEdu\Debug\AsciiEdu.exp
^c:\Users\ACER\source\repos\AsciiEdu\AsciiEdu\AsciiEdu.vcxproj
c:\Users\ACER\source\repos\AsciiEdu\Debug\AsciiEdu.lib
c:\Users\ACER\source\repos\AsciiEdu\Debug\AsciiEdu.exp
^c:\Users\ACER\source\repos\AsciiEdu\AsciiEdu\AsciiEdu.vcxproj
c:\Users\ACER\source\repos\AsciiEdu\Debug\AsciiEdu.lib
c:\Users\ACER\source\repos\AsciiEdu\Debug\AsciiEdu.exp
^c:\Users\ACER\source\repos\AsciiEdu\AsciiEdu\AsciiEdu.vcxproj
c:\Users\ACER\source\repos\AsciiEdu\Debug\AsciiEdu.lib
c:\Users\ACER\source\repos\AsciiEdu\Debug\AsciiEdu.exp
^c:\Users\ACER\source\repos\AsciiEdu\AsciiEdu\AsciiEdu.vcxproj
c:\Users\ACER\source\repos\AsciiEdu\Debug\AsciiEdu.lib
c:\Users\ACER\source\repos\AsciiEdu\Debug\AsciiEdu.exp
^c:\Users\ACER\source\repos\AsciiEdu\AsciiEdu\AsciiEdu.vcxproj
c:\Users\ACER\source\repos\AsciiEdu\Debug\AsciiEdu.lib
c:\Users\ACER\source\repos\AsciiEdu\Debug\AsciiEdu.exp
^c:\Users\ACER\source\repos\AsciiEdu\AsciiEdu\AsciiEdu.vcxproj
c:\Users\ACER\source\repos\AsciiEdu\Debug\AsciiEdu.lib
c:\Users\ACER\source\repos\AsciiEdu\Debug\AsciiEdu.exp
^c:\Users\ACER\source\repos\AsciiEdu\AsciiEdu\AsciiEdu.vcxproj
c:\Users\ACER\source\repos\AsciiEdu\Debug\AsciiEdu.lib
c:\Users\ACER\source\repos\AsciiEdu\Debug\AsciiEdu.exp
^c:\Users\ACER\source\repos\AsciiEdu\AsciiEdu\AsciiEdu.vcxproj
c:\Users\ACER\source\repos\AsciiEdu\Debug\AsciiEdu.lib
c:\Users\ACER\source\repos\AsciiEdu\Debug\AsciiEdu.exp
^c:\Users\ACER\source\repos\AsciiEdu\AsciiEdu\AsciiEdu.vcxproj
c:\Users\ACER\source\repos\AsciiEdu\Debug\AsciiEdu.lib
c:\Users\ACER\source\repos\AsciiEdu\Debug\AsciiEdu.exp
^c:\Users\ACER\source\repos\AsciiEdu\AsciiEdu\AsciiEdu.vcxproj
c:\Users\ACER\source\repos\AsciiEdu\Debug\AsciiEdu.lib
c:\Users\ACER\source\repos\AsciiEdu\Debug\AsciiEdu.exp
^c:\Users\ACER\source\repos\AsciiEdu\AsciiEdu\AsciiEdu.vcxproj
c:\Users\ACER\source\repos\AsciiEdu\Debug\AsciiEdu.lib
c:\Users\ACER\source\repos\AsciiEdu\Debug\AsciiEdu.exp
^c:\Users\ACER\source\repos\AsciiEdu\AsciiEdu\AsciiEdu.vcxproj
c:\Users\ACER\source\repos\AsciiEdu\Debug\AsciiEdu.lib
c:\Users\ACER\source\repos\AsciiEdu\Debug\AsciiEdu.exp
^c:\Users\ACER\source\repos\AsciiEdu\AsciiEdu\AsciiEdu.vcxproj
c:\Users\ACER\source\repos\AsciiEdu\Debug\AsciiEdu.lib
c:\Users\ACER\source\repos\AsciiEdu\Debug\AsciiEdu.exp
^c:\Users\ACER\source\repos\AsciiEdu\AsciiEdu\AsciiEdu.vcxproj
c:\Users\ACER\source\repos\AsciiEdu\Debug\AsciiEdu.lib
c:\Users\ACER\source\repos\AsciiEdu\Debug\AsciiEdu.exp
^c:\Users\ACER\source\repos\AsciiEdu\AsciiEdu\AsciiEdu.vcxproj
c:\Users\ACER\source\repos\AsciiEdu\Debug\AsciiEdu.lib
c:\Users\ACER\source\repos\AsciiEdu\Debug\AsciiEdu.exp
^c:\Users\ACER\source\repos\AsciiEdu\AsciiEdu\AsciiEdu.vcxproj
c:\Users\ACER\source\repos\AsciiEdu\Debug\AsciiEdu.lib
c:\Users\ACER\source\repos\AsciiEdu\Debug\AsciiEdu.exp
^c:\Users\ACER\source\repos\AsciiEdu\AsciiEdu\AsciiEdu.vcxproj
c:\Users\ACER\source\repos\AsciiEdu\Debug\AsciiEdu.lib
c:\Users\ACER\source\repos\AsciiEdu\Debug\AsciiEdu.exp
^c:\Users\ACER\source\repos\AsciiEdu\AsciiEdu\AsciiEdu.vcxproj
c:\Users\ACER\source\repos\AsciiEdu\Debug\AsciiEdu.lib
c:\Users\ACER\source\repos\AsciiEdu\Debug\AsciiEdu.exp
^c:\Users\ACER\source\repos\AsciiEdu\AsciiEdu\AsciiEdu.vcxproj
c:\Users\ACER\source\repos\AsciiEdu\Debug\AsciiEdu.lib
c:\Users\ACER\source\repos\AsciiEdu\Debug\AsciiEdu.exp
^c:\Users\ACER\source\repos\AsciiEdu\AsciiEdu\AsciiEdu.vcxproj
c:\Users\ACER\source\repos\AsciiEdu\Debug\AsciiEdu.lib
c:\Users\ACER\source\repos\AsciiEdu\Debug\AsciiEdu.exp
^c:\Users\ACER\source\repos\AsciiEdu\AsciiEdu\AsciiEdu.vcxproj
c:\Users\ACER\source\repos\AsciiEdu\Debug\AsciiEdu.lib
c:\Users\ACER\source\repos\AsciiEdu\Debug\AsciiEdu.exp
^c:\Users\ACER\source\repos\AsciiEdu\AsciiEdu\AsciiEdu.vcxproj
c:\Users\ACER\source\repos\AsciiEdu\Debug\AsciiEdu.lib
c:\Users\ACER\source\repos\AsciiEdu\Debug\AsciiEdu.exp
^c:\Users\ACER\source\repos\AsciiEdu\AsciiEdu\AsciiEdu.vcxproj
c:\Users\ACER\source\repos\AsciiEdu\Debug\AsciiEdu.lib
c:\Users\ACER\source\repos\AsciiEdu\Debug\AsciiEdu.exp
^c:\Users\ACER\source\repos\AsciiEdu\AsciiEdu\AsciiEdu.vcxproj
c:\Users\ACER\source\repos\AsciiEdu\Debug\AsciiEdu.lib
c:\Users\ACER\source\repos\AsciiEdu\Debug\AsciiEdu.exp
^c:\Users\ACER\source\repos\AsciiEdu\AsciiEdu\AsciiEdu.vcxproj
c:\Users\ACER\source\repos\AsciiEdu\Debug\AsciiEdu.lib
c:\Users\ACER\source\repos\AsciiEdu\Debug\AsciiEdu.exp
^c:\Users\ACER\source\repos\AsciiEdu\AsciiEdu\AsciiEdu.vcxproj
c:\Users\ACER\source\repos\AsciiEdu\Debug\AsciiEdu.lib
c:\Users\ACER\source\repos\AsciiEdu\Debug\AsciiEdu.exp
^c:\Users\ACER\source\repos\AsciiEdu\AsciiEdu\AsciiEdu.vcxproj
c:\Users\ACER\source\repos\AsciiEdu\Debug\AsciiEdu.lib
c:\Users\ACER\source\repos\AsciiEdu\Debug\AsciiEdu.exp
^c:\Users\ACER\source\repos\AsciiEdu\AsciiEdu\AsciiEdu.vcxproj
c:\Users\ACER\source\repos\AsciiEdu\Debug\AsciiEdu.lib
c:\Users\ACER\source\repos\AsciiEdu\Debug\AsciiEdu.exp
^c:\Users\ACER\source\repos\AsciiEdu\AsciiEdu\AsciiEdu.vcxproj
c:\Users\ACER\source\repos\AsciiEdu\Debug\AsciiEdu.lib
c:\Users\ACER\source\repos\AsciiEdu\Debug\AsciiEdu.exp
^c:\Users\ACER\source\repos\AsciiEdu\AsciiEdu\AsciiEdu.vcxproj
c:\Users\ACER\source\repos\AsciiEdu\Debug\AsciiEdu.lib
c:\Users\ACER\source\repos\AsciiEdu\Debug\AsciiEdu.exp
^c:\Users\ACER\source\repos\AsciiEdu\AsciiEdu\AsciiEdu.vcxproj
c:\Users\ACER\source\repos\AsciiEdu\Debug\AsciiEdu.lib
c:\Users\ACER\source\repos\AsciiEdu\Debug\AsciiEdu.exp
^c:\Users\ACER\source\repos\AsciiEdu\AsciiEdu\AsciiEdu.vcxproj
c:\Users\ACER\source\repos\AsciiEdu\Debug\AsciiEdu.lib
c:\Users\ACER\source\repos\AsciiEdu\Debug\AsciiEdu.exp
^c:\Users\ACER\source\repos\AsciiEdu\AsciiEdu\AsciiEdu.vcxproj
c:\Users\ACER\source\repos\AsciiEdu\Debug\AsciiEdu.lib
c:\Users\ACER\source\repos\AsciiEdu\Debug\AsciiEdu.exp
^c:\Users\ACER\source\repos\AsciiEdu\AsciiEdu\AsciiEdu.vcxproj
c:\Users\ACER\source\repos\AsciiEdu\Debug\AsciiEdu.lib
c:\Users\ACER\source\repos\AsciiEdu\Debug\AsciiEdu.exp
^c:\Users\ACER\source\repos\AsciiEdu\AsciiEdu\AsciiEdu.vcxproj
c:\Users\ACER\source\repos\AsciiEdu\Debug\AsciiEdu.lib
c:\Users\ACER\source\repos\AsciiEdu\Debug\AsciiEdu.exp
^c:\Users\ACER\source\repos\AsciiEdu\AsciiEdu\AsciiEdu.vcxproj
c:\Users\ACER\source\repos\AsciiEdu\Debug\AsciiEdu.lib
c:\Users\ACER\source\repos\AsciiEdu\Debug\AsciiEdu.exp
^c:\Users\ACER\source\repos\AsciiEdu\AsciiEdu\AsciiEdu.vcxproj
c:\Users\ACER\source\repos\AsciiEdu\Debug\AsciiEdu.lib
c:\Users\ACER\source\repos\AsciiEdu\Debug\AsciiEdu.exp
^c:\Users\ACER\source\repos\AsciiEdu\AsciiEdu\AsciiEdu.vcxproj
c:\Users\ACER\source\repos\AsciiEdu\Debug\AsciiEdu.lib
c:\Users\ACER\source\repos\AsciiEdu\Debug\AsciiEdu.exp
^c:\Users\ACER\source\repos\AsciiEdu\AsciiEdu\AsciiEdu.vcxproj
c:\Users\ACER\source\repos\AsciiEdu\Debug\AsciiEdu.lib
c:\Users\ACER\source\repos\AsciiEdu\Debug\AsciiEdu.exp
^c:\Users\ACER\source\repos\AsciiEdu\AsciiEdu\AsciiEdu.vcxproj
c:\Users\ACER\source\repos\AsciiEdu\Debug\AsciiEdu.lib
c:\Users\ACER\source\repos\AsciiEdu\Debug\AsciiEdu.exp
^c:\Users\ACER\source\repos\AsciiEdu\AsciiEdu\AsciiEdu.vcxproj
c:\Users\ACER\source\repos\AsciiEdu\Debug\AsciiEdu.lib
c:\Users\ACER\source\repos\AsciiEdu\Debug\AsciiEdu.exp
^c:\Users\ACER\source\repos\AsciiEdu\AsciiEdu\AsciiEdu.vcxproj
c:\Users\ACER\source\repos\AsciiEdu\Debug\AsciiEdu.lib
c:\Users\ACER\source\repos\AsciiEdu\Debug\AsciiEdu.exp
^c:\Users\ACER\source\repos\AsciiEdu\AsciiEdu\AsciiEdu.vcxproj
c:\Users\ACER\source\repos\AsciiEdu\Debug\AsciiEdu.lib
c:\Users\ACER\source\repos\AsciiEdu\Debug\AsciiEdu.exp
^c:\Users\ACER\source\repos\AsciiEdu\AsciiEdu\AsciiEdu.vcxproj
c:\Users\ACER\source\repos\AsciiEdu\Debug\AsciiEdu.lib
c:\Users\ACER\source\repos\AsciiEdu\Debug\AsciiEdu.exp
^c:\Users\ACER\source\repos\AsciiEdu\AsciiEdu\AsciiEdu.vcxproj
c:\Users\ACER\source\repos\AsciiEdu\Debug\AsciiEdu.lib
c:\Users\ACER\source\repos\AsciiEdu\Debug\AsciiEdu.exp
^c:\Users\ACER\source\repos\AsciiEdu\AsciiEdu\AsciiEdu.vcxproj
c:\Users\ACER\source\repos\AsciiEdu\Debug\AsciiEdu.lib
c:\Users\ACER\source\repos\AsciiEdu\Debug\AsciiEdu.exp
^c:\Users\ACER\source\repos\AsciiEdu\AsciiEdu\AsciiEdu.vcxproj
c:\Users\ACER\source\repos\AsciiEdu\Debug\AsciiEdu.lib
c:\Users\ACER\source\repos\AsciiEdu\Debug\AsciiEdu.exp
^c:\Users\ACER\source\repos\AsciiEdu\AsciiEdu\AsciiEdu.vcxproj
c:\Users\ACER\source\repos\AsciiEdu\Debug\AsciiEdu.lib
c:\Users\ACER\source\repos\AsciiEdu\Debug\AsciiEdu.exp
^c:\Users\ACER\source\repos\AsciiEdu\AsciiEdu\AsciiEdu.vcxproj
c:\Users\ACER\source\repos\AsciiEdu\Debug\AsciiEdu.lib
c:\Users\ACER\source\repos\AsciiEdu\Debug\AsciiEdu.exp
^c:\Users\ACER\source\repos\AsciiEdu\AsciiEdu\AsciiEdu.vcxproj
c:\Users\ACER\source\repos\AsciiEdu\Debug\AsciiEdu.lib
c:\Users\ACER\source\repos\AsciiEdu\Debug\AsciiEdu.exp
^c:\Users\ACER\source\repos\AsciiEdu\AsciiEdu\AsciiEdu.vcxproj
c:\Users\ACER\source\repos\AsciiEdu\Debug\AsciiEdu.lib
c:\Users\ACER\source\repos\AsciiEdu\Debug\AsciiEdu.exp
^c:\Users\ACER\source\repos\AsciiEdu\AsciiEdu\AsciiEdu.vcxproj
c:\Users\ACER\source\repos\AsciiEdu\Debug\AsciiEdu.lib
c:\Users\ACER\source\repos\AsciiEdu\Debug\AsciiEdu.exp
^c:\Users\ACER\source\repos\AsciiEdu\AsciiEdu\AsciiEdu.vcxproj
c:\Users\ACER\source\repos\AsciiEdu\Debug\AsciiEdu.lib
c:\Users\ACER\source\repos\AsciiEdu\Debug\AsciiEdu.exp
^c:\Users\ACER\source\repos\AsciiEdu\AsciiEdu\AsciiEdu.vcxproj
c:\Users\ACER\source\repos\AsciiEdu\Debug\AsciiEdu.lib
c:\Users\ACER\source\repos\AsciiEdu\Debug\AsciiEdu.exp
^C:\Users\ACER\source\repos\AsciiEdu\AsciiEdu\AsciiEdu.vcxproj
C:\Users\ACER\source\repos\AsciiEdu\Debug\AsciiEdu.lib
C:\Users\ACER\source\repos\AsciiEdu\Debug\AsciiEdu.exp
^C:\Users\ACER\source\repos\AsciiEdu\AsciiEdu\AsciiEdu.vcxproj
C:\Users\ACER\source\repos\AsciiEdu\Debug\AsciiEdu.lib
C:\Users\ACER\source\repos\AsciiEdu\Debug\AsciiEdu.exp
^C:\Users\ACER\source\repos\AsciiEdu\AsciiEdu\AsciiEdu.vcxproj
C:\Users\ACER\source\repos\AsciiEdu\Debug\AsciiEdu.lib
C:\Users\ACER\source\repos\AsciiEdu\Debug\AsciiEdu.exp
^C:\Users\ACER\source\repos\AsciiEdu\AsciiEdu\AsciiEdu.vcxproj
C:\Users\ACER\source\repos\AsciiEdu\Debug\AsciiEdu.lib
C:\Users\ACER\source\repos\AsciiEdu\Debug\AsciiEdu.exp
^C:\Users\ACER\source\repos\AsciiEdu\AsciiEdu\AsciiEdu.vcxproj
C:\Users\ACER\source\repos\AsciiEdu\Debug\AsciiEdu.lib
C:\Users\ACER\source\repos\AsciiEdu\Debug\AsciiEdu.exp
^C:\Users\ACER\source\repos\AsciiEdu\AsciiEdu\AsciiEdu.vcxproj
C:\Users\ACER\source\repos\AsciiEdu\Debug\AsciiEdu.lib
C:\Users\ACER\source\repos\AsciiEdu\Debug\AsciiEdu.exp
^C:\Users\ACER\source\repos\AsciiEdu\AsciiEdu\AsciiEdu.vcxproj
C:\Users\ACER\source\repos\AsciiEdu\Debug\AsciiEdu.lib
C:\Users\ACER\source\repos\AsciiEdu\Debug\AsciiEdu.exp
^C:\Users\ACER\source\repos\AsciiEdu\AsciiEdu\AsciiEdu.vcxproj
C:\Users\ACER\source\repos\AsciiEdu\Debug\AsciiEdu.lib
C:\Users\ACER\source\repos\AsciiEdu\Debug\AsciiEdu.exp
^C:\Users\ACER\source\repos\AsciiEdu\AsciiEdu\AsciiEdu.vcxproj
C:\Users\ACER\source\repos\AsciiEdu\Debug\AsciiEdu.lib
C:\Users\ACER\source\repos\AsciiEdu\Debug\AsciiEdu.exp
^C:\Users\ACER\source\repos\AsciiEdu\AsciiEdu\AsciiEdu.vcxproj
C:\Users\ACER\source\repos\AsciiEdu\Debug\AsciiEdu.lib
C:\Users\ACER\source\repos\AsciiEdu\Debug\AsciiEdu.exp
^C:\Users\ACER\source\repos\AsciiEdu\AsciiEdu\AsciiEdu.vcxproj
C:\Users\ACER\source\repos\AsciiEdu\Debug\AsciiEdu.lib
C:\Users\ACER\source\repos\AsciiEdu\Debug\AsciiEdu.exp
^C:\Users\ACER\source\repos\AsciiEdu\AsciiEdu\AsciiEdu.vcxproj
C:\Users\ACER\source\repos\AsciiEdu\Debug\AsciiEdu.lib
C:\Users\ACER\source\repos\AsciiEdu\Debug\AsciiEdu.exp
^C:\Users\ACER\source\repos\AsciiEdu\AsciiEdu\AsciiEdu.vcxproj
C:\Users\ACER\source\repos\AsciiEdu\Debug\AsciiEdu.lib
C:\Users\ACER\source\repos\AsciiEdu\Debug\AsciiEdu.exp
^C:\Users\ACER\source\repos\AsciiEdu\AsciiEdu\AsciiEdu.vcxproj
C:\Users\ACER\source\repos\AsciiEdu\Debug\AsciiEdu.lib
C:\Users\ACER\source\repos\AsciiEdu\Debug\AsciiEdu.exp
^C:\Users\ACER\source\repos\AsciiEdu\AsciiEdu\AsciiEdu.vcxproj
C:\Users\ACER\source\repos\AsciiEdu\Debug\AsciiEdu.lib
C:\Users\ACER\source\repos\AsciiEdu\Debug\AsciiEdu.exp
^C:\Users\ACER\source\repos\AsciiEdu\AsciiEdu\AsciiEdu.vcxproj
C:\Users\ACER\source\repos\AsciiEdu\Debug\AsciiEdu.lib
C:\Users\ACER\source\repos\AsciiEdu\Debug\AsciiEdu.exp
